[
  {
    "id": 9458,
    "uid": "756cd0f4-a791-4c2c-8106-d56729285b06",
    "password": "$2b$10$VQyMBuVllQ/UebPEhArDE.MzUTn5ir/tVSCoHkMj8alwtgOmiVSty",
    "first_name": "Porsche",
    "last_name": "Huel",
    "username": "porsche.huel",
    "email": "porsche.huel@email.com",
    "avatar": "https://robohash.org/cumtemporavoluptatem.png?size=300x300&set=set1",
    "gender": "Female",
    "phone_number": "+90 328.468.5702 x1070",
    "social_insurance_number": "540176294",
    "date_of_birth": "1967-02-06",
    "employment": {
      "title": "Real-Estate Architect",
      "key_skill": "Confidence"
    },
    "address": {
      "city": "Hermistonview",
      "street_name": "Deonna Parkways",
      "street_address": "7510 Alan Way",
      "zip_code": "40822-1730",
      "state": "Georgia",
      "country": "United States",
      "coordinates": {
        "lat": 77.47410961548789,
        "lng": 171.31022224658352
      }
    },
    "credit_card": {
      "cc_number": "6771-8933-0738-5395"
    },
    "subscription": {
      "plan": "Premium",
      "status": "Pending",
      "payment_method": "Cash",
      "term": "Monthly"
    }
  },
  {
    "id": 5693,
    "uid": "6017113f-9a98-4873-b552-fbd0bc633003",
    "password": "$2b$10$nhaHD1nSFbMxTUlAYO7Tze3cGzmxtLyyAB2ZWCyQwXHAKOHSgPutS",
    "first_name": "Julius",
    "last_name": "O'Conner",
    "username": "julius.o'conner",
    "email": "julius.oconner@email.com",
    "avatar": "https://robohash.org/facereomnisa.png?size=300x300&set=set1",
    "gender": "Genderfluid",
    "phone_number": "+222 253-528-1900 x015",
    "social_insurance_number": "517124038",
    "date_of_birth": "1976-06-23",
    "employment": {
      "title": "Hospitality Consultant",
      "key_skill": "Problem solving"
    },
    "address": {
      "city": "New Leland",
      "street_name": "Salvador Dam",
      "street_address": "21488 Schulist Roads",
      "zip_code": "61170-4842",
      "state": "Kentucky",
      "country": "United States",
      "coordinates": {
        "lat": -59.112234319064655,
        "lng": 88.52573172649932
      }
    },
    "credit_card": {
      "cc_number": "4327-3740-3196-4635"
    },
    "subscription": {
      "plan": "Gold",
      "status": "Pending",
      "payment_method": "Credit card",
      "term": "Monthly"
    }
  },
  {
    "id": 8747,
    "uid": "c8c335b0-08ba-4936-97cb-ae99ecd8b18a",
    "password": "$2b$10$B94RvOuQttkLhybuG/TOSOmQ6aDXXbeyxfNC0Q.8dqlCl2An70auG",
    "first_name": "Melodee",
    "last_name": "Dooley",
    "username": "melodee.dooley",
    "email": "melodee.dooley@email.com",
    "avatar": "https://robohash.org/numquamestconsectetur.png?size=300x300&set=set1",
    "gender": "Polygender",
    "phone_number": "+507 (717) 711-6654 x54837",
    "social_insurance_number": "975309550",
    "date_of_birth": "1998-01-06",
    "employment": {
      "title": "Lead Officer",
      "key_skill": "Self-motivated"
    },
    "address": {
      "city": "Hackettshire",
      "street_name": "Dare Wall",
      "street_address": "1946 Weissnat Squares",
      "zip_code": "48449",
      "state": "Pennsylvania",
      "country": "United States",
      "coordinates": {
        "lat": -54.79096708302964,
        "lng": -171.68421509212487
      }
    },
    "credit_card": {
      "cc_number": "5334-4814-9839-8203"
    },
    "subscription": {
      "plan": "Student",
      "status": "Idle",
      "payment_method": "WeChat Pay",
      "term": "Monthly"
    }
  }
]